%YAML 1.1
%TAG !u! tag:unity3d.com,2011:
--- !u!114 &11400000
MonoBehaviour:
  m_ObjectHideFlags: 0
  m_CorrespondingSourceObject: {fileID: 0}
  m_PrefabInstance: {fileID: 0}
  m_PrefabAsset: {fileID: 0}
  m_GameObject: {fileID: 0}
  m_Enabled: 1
  m_EditorHideFlags: 0
  m_Script: {fileID: 11500000, guid: e3fbc8d65c44e184c9d732b35e6050be, type: 3}
  m_Name: 90
  m_EditorClassIdentifier: 
  _name: 
  _accuracy: 0
  _shotMiss: 0
  _shotHit: 0
